Data Analysis Notes
…
cv_fold5$train[[1]]

## <resample [21 x 7]> 1, 2, 6, 7, 8, 9, 10, 11, 12, 13, ...

cv_fold5$test[[1]]

## <resample [6 x 7]> 3, 4, 5, 15, 22, 26

as.data.frame(cv_fold5$train[[1]])

## # A tibble: 21 × 7
##     vint     price wrain degrees hrain time_sv   lprice
##    <int>     <dbl> <int>   <dbl> <int>   <int>    <dbl>
## 1   1952  36.83654   600 17.1167   160      31 -0.99868
## 2   1953  63.48288   690 16.7333    80      30 -0.45440
## 3   1959  65.83622   485 17.4833   187      24 -0.41800
## 4   1960  13.87738   763 16.4167   290      23 -1.97491
## 5   1961 100.00000   830 17.3333    38      22  0.00000
## 6   1962  33.09725   697 16.3000    52      21 -1.10572
## 7   1963  16.84730   608 15.7167   155      20 -1.78098
## 8   1964  30.59450   402 17.2667    96      19 -1.18435
## 9   1965  10.62522   602 15.3667   267      18 -2.24194
## 10  1966  47.26359   819 16.5333    86      17 -0.74943
## # ... with 11 more rows
…
