Data Analysis Notes
…
Galton (1886) examined the joint distribution of the heights of parents and their children. He was estimating the average height of children conditional upon the height of their parents. He found that this relationship was approximately linear with a slope of 2/3.

This means that on average taller parents had taller children, but the children of taller parents were on average shorter than they were, and the children of shorter parents were on average taller than they were. In other words, the children’s height was more average than parent’s height.

This phenomenon was called regression to the mean, and the term regression is now used to describe conditional relationships (Hansen 2010).

His key insight was that if the marginal distributions of two variables are the same, then the linear slope will be less than one.

He also found that when the variables are standardized, the slope of the regression of \(y\) on \(x\) and \(x\) on \(y\) are the same. They are both the correlation between \(x\) and \(y\), and they both show regression to the mean.

Galton <- as_tibble(Galton)
Galton

## # A tibble: 928 × 2
##    parent child
##     <dbl> <dbl>
## 1    70.5  61.7
## 2    68.5  61.7
## 3    65.5  61.7
## 4    64.5  61.7
## 5    64.0  61.7
## 6    67.5  62.2
## 7    67.5  62.2
## 8    67.5  62.2
## 9    66.5  62.2
## 10   66.5  62.2
## # ... with 918 more rows
…
